{
  "error_code": "find_cars_failed",
  "error_messages": {
    "name": [{
      "code": "name_is_too_short",
      "message": "name can not be shorter than 1 character(s)",
      "params": { "minlength": 1 }
    },
      {
        "code": "name_is_too_long",
        "message": "name can not be longer than 255 character(s)",
        "params": { "maxlength": 255 }
      },
      {
        "code": "name_is_required",
        "message": "name is required"
      }],
    "model": [{
      "code": "model_is_too_short",
      "message": "model can not be shorter than 1 character(s)",
      "params": { "minlength": 1 }
    },
      {
        "code": "model_is_too_long",
        "message": "model can not be longer than 255 character(s)",
        "params": { "maxlength": 255 }
      },
      {
        "code": "model_is_required",
        "message": "model is required"
      }],
    "vin_code": [{
      "code": "vin_code_is_required",
      "message": "vin_code is required"
    }],
    "manufacture_year": [{
      "code": "manufacture_year_is_required",
      "message": "manufacture_year is required"
    }],
    "volume": [{
      "code": "volume_is_too_long",
      "message": "volume can not be longer than 150 character(s)",
      "params": { "maxlength": 255 }
    }],
    "mileage": [{
      "code": "mileage_is_required",
      "message": "mileage is required"
    }]
  }
}