{
  "$schema": "http://json-schema.org/draft-04/schema#",
  "properties": {
    "cars": {
      "type": "array",
      "description": "An array of Cars objects",
      "items": {
        "type": "object",
        "required": ["id", "vin_code", "model", "name", "manufacture_year", "volume", "mileage"],
        "properties": {
          "id": {
            "type":"string",
            "description": "ID of the car"
          },
          "vin_code": {
            "type":"string",
            "description": "vin_code of the car"
          },
          "name": {
            "type":"string",
            "description": "Name of  this car"
          },
          "model": {
            "type":"string",
            "description": "model of this car"
          },
          "manufacture_year": {
            "type":"string",
            "description": "Manufacture year of the car"
          },
          "volume": {
            "type":"string",
            "description": "Volume of the car"
          },
          "mileage": {
            "type":"string",
            "description": "Car mileage"
          }
        }
      }
    }
  }
}